{
    "count": 36,
    "next": "https://ll.thespacedevs.com/2.0.0/launch/upcoming/?limit=10&mode=list&offset=10&search=SpaceX",
    "previous": null,
    "results": [
        {
            "id": "528b72ff-e47e-46a3-b7ad-23b2ffcec2f2",
            "url": "https://ll.thespacedevs.com/2.0.0/launch/528b72ff-e47e-46a3-b7ad-23b2ffcec2f2/",
            "launch_library_id": 2103,
            "slug": "falcon-9-block-5-nrol-108",
            "name": "Falcon 9 Block 5 | NROL-108",
            "status": {
                "id": 1,
                "name": "Go"
            },
            "net": "2020-12-17T14:00:00Z",
            "window_end": "2020-12-17T17:00:00Z",
            "window_start": "2020-12-17T14:00:00Z",
            "lsp_name": "SpaceX",
            "mission": "NROL-108",
            "mission_type": "Government/Top Secret",
            "pad": "Launch Complex 39A",
            "location": "Kennedy Space Center, FL, USA",
            "landing": "LZ-1",
            "landing_success": 0,
            "launcher": "B1059",
            "orbit": null,
            "image": "https://spacelaunchnow-prod-east.nyc3.digitaloceanspaces.com/media/launcher_images/falcon25209_image_20190224025007.jpeg",
            "infographic": null
        },
        {
            "id": "16d0c02e-0bb1-45d5-a3f5-7c4ff6cf6de1",
            "url": "https://ll.thespacedevs.com/2.0.0/launch/16d0c02e-0bb1-45d5-a3f5-7c4ff6cf6de1/",
            "launch_library_id": 1413,
            "slug": "falcon-9-block-5-turksat-5b",
            "name": "Falcon 9 Block 5 | Türksat 5B",
            "status": {
                "id": 2,
                "name": "TBD"
            },
            "net": "2021-01-01T00:00:00Z",
            "window_end": "2021-01-01T00:00:00Z",
            "window_start": "2021-01-01T00:00:00Z",
            "lsp_name": "SpaceX",
            "mission": null,
            "pad": "Unknown Pad",
            "location": "Unknown Location",
            "landing": null,
            "landing_success": null,
            "launcher": null,
            "orbit": null,
            "image": "https://spacelaunchnow-prod-east.nyc3.digitaloceanspaces.com/media/launcher_images/falcon25209_image_20190224025007.jpeg",
            "infographic": null
        },
        {
            "id": "2e650790-ff3e-434a-b028-a6a1a13cfc94",
            "url": "https://ll.thespacedevs.com/2.0.0/launch/2e650790-ff3e-434a-b028-a6a1a13cfc94/",
            "launch_library_id": 1694,
            "slug": "falcon-9-block-5-nrol-87",
            "name": "Falcon 9 Block 5 | NROL-87",
            "status": {
                "id": 2,
                "name": "TBD"
            },
            "net": "2021-01-01T00:00:00Z",
            "window_end": "2021-01-01T00:00:00Z",
            "window_start": "2021-01-01T00:00:00Z",
            "lsp_name": "SpaceX",
            "mission": null,
            "pad": "Space Launch Complex 40",
            "location": "Cape Canaveral, FL, USA",
            "landing": null,
            "landing_success": null,
            "launcher": null,
            "orbit": null,
            "image": "https://spacelaunchnow-prod-east.nyc3.digitaloceanspaces.com/media/launcher_images/falcon25209_image_20190224025007.jpeg",
            "infographic": null
        },
        {
            "id": "42932355-c450-4250-a885-2d2709fd7cfc",
            "url": "https://ll.thespacedevs.com/2.0.0/launch/42932355-c450-4250-a885-2d2709fd7cfc/",
            "launch_library_id": 1693,
            "slug": "falcon-9-block-5-nrol-85",
            "name": "Falcon 9 Block 5 | NROL-85",
            "status": {
                "id": 2,
                "name": "TBD"
            },
            "net": "2021-01-01T00:00:00Z",
            "window_end": "2021-01-01T00:00:00Z",
            "window_start": "2021-01-01T00:00:00Z",
            "lsp_name": "SpaceX",
            "mission": null,
            "pad": "Space Launch Complex 40",
            "location": "Cape Canaveral, FL, USA",
            "landing": null,
            "landing_success": null,
            "launcher": null,
            "orbit": null,
            "image": "https://spacelaunchnow-prod-east.nyc3.digitaloceanspaces.com/media/launcher_images/falcon25209_image_20190224025007.jpeg",
            "infographic": null
        },
        {
            "id": "7105c4f4-7427-4f9a-a959-a8ecedd6062b",
            "url": "https://ll.thespacedevs.com/2.0.0/launch/7105c4f4-7427-4f9a-a959-a8ecedd6062b/",
            "launch_library_id": 1987,
            "slug": "falcon-9-block-5-o3b-mpower-1-3",
            "name": "Falcon 9 Block 5 | O3b mPower 1-3",
            "status": {
                "id": 2,
                "name": "TBD"
            },
            "net": "2021-01-01T00:00:00Z",
            "window_end": "2021-01-01T00:00:00Z",
            "window_start": "2021-01-01T00:00:00Z",
            "lsp_name": "SpaceX",
            "mission": null,
            "pad": "Space Launch Complex 4E",
            "location": "Vandenberg AFB, CA, USA",
            "landing": null,
            "landing_success": null,
            "launcher": null,
            "orbit": null,
            "image": "https://spacelaunchnow-prod-east.nyc3.digitaloceanspaces.com/media/launcher_images/falcon25209_image_20190224025007.jpeg",
            "infographic": null
        },
        {
            "id": "8b1067dd-81c6-4bc3-b0f1-45f78963716f",
            "url": "https://ll.thespacedevs.com/2.0.0/launch/8b1067dd-81c6-4bc3-b0f1-45f78963716f/",
            "launch_library_id": 1644,
            "slug": "falcon-heavy-viasat-3-series-satellite",
            "name": "Falcon Heavy | ViaSat-3 series satellite",
            "status": {
                "id": 2,
                "name": "TBD"
            },
            "net": "2021-01-01T00:00:00Z",
            "window_end": "2021-01-01T00:00:00Z",
            "window_start": "2021-01-01T00:00:00Z",
            "lsp_name": "SpaceX",
            "mission": "ViaSat-3",
            "mission_type": "Communications",
            "pad": "Launch Complex 39A",
            "location": "Kennedy Space Center, FL, USA",
            "landing": null,
            "landing_success": null,
            "launcher": null,
            "orbit": "GTO",
            "image": "https://spacelaunchnow-prod-east.nyc3.digitaloceanspaces.com/media/launcher_images/falcon2520heavy_image_20190224025007.jpeg",
            "infographic": null
        },
        {
            "id": "ff9b6a09-2b5a-4ca3-934e-c86db21b7a1b",
            "url": "https://ll.thespacedevs.com/2.0.0/launch/ff9b6a09-2b5a-4ca3-934e-c86db21b7a1b/",
            "launch_library_id": 1988,
            "slug": "falcon-9-block-5-o3b-mpower-4-7",
            "name": "Falcon 9 Block 5 | O3b mPower 4-7",
            "status": {
                "id": 2,
                "name": "TBD"
            },
            "net": "2021-01-01T00:00:00Z",
            "window_end": "2021-01-01T00:00:00Z",
            "window_start": "2021-01-01T00:00:00Z",
            "lsp_name": "SpaceX",
            "mission": null,
            "pad": "Space Launch Complex 4E",
            "location": "Vandenberg AFB, CA, USA",
            "landing": null,
            "landing_success": null,
            "launcher": null,
            "orbit": null,
            "image": "https://spacelaunchnow-prod-east.nyc3.digitaloceanspaces.com/media/launcher_images/falcon25209_image_20190224025007.jpeg",
            "infographic": null
        },
        {
            "id": "f213a5df-579a-4682-8143-df228e463049",
            "url": "https://ll.thespacedevs.com/2.0.0/launch/f213a5df-579a-4682-8143-df228e463049/",
            "launch_library_id": 1965,
            "slug": "falcon-9-block-5-dedicated-sso-rideshare-mission-1",
            "name": "Falcon 9 Block 5 | Dedicated SSO Rideshare Mission 1",
            "status": {
                "id": 2,
                "name": "TBD"
            },
            "net": "2021-01-14T00:00:00Z",
            "window_end": "2021-01-14T00:00:00Z",
            "window_start": "2021-01-14T00:00:00Z",
            "lsp_name": "SpaceX",
            "mission": null,
            "pad": "Space Launch Complex 40",
            "location": "Cape Canaveral, FL, USA",
            "landing": null,
            "landing_success": null,
            "launcher": null,
            "orbit": null,
            "image": "https://spacelaunchnow-prod-east.nyc3.digitaloceanspaces.com/media/launcher_images/falcon25209_image_20190224025007.jpeg",
            "infographic": null
        },
        {
            "id": "d5d607b7-05ed-4142-8703-14b553c195e0",
            "url": "https://ll.thespacedevs.com/2.0.0/launch/d5d607b7-05ed-4142-8703-14b553c195e0/",
            "launch_library_id": 1412,
            "slug": "falcon-9-block-5-turksat-5a",
            "name": "Falcon 9 Block 5 | Türksat 5A",
            "status": {
                "id": 2,
                "name": "TBD"
            },
            "net": "2021-01-31T00:00:00Z",
            "window_end": "2021-01-31T00:00:00Z",
            "window_start": "2021-01-31T00:00:00Z",
            "lsp_name": "SpaceX",
            "mission": null,
            "pad": "Space Launch Complex 40",
            "location": "Cape Canaveral, FL, USA",
            "landing": null,
            "landing_success": null,
            "launcher": null,
            "orbit": null,
            "image": "https://spacelaunchnow-prod-east.nyc3.digitaloceanspaces.com/media/launcher_images/falcon25209_image_20190224025007.jpeg",
            "infographic": null
        },
        {
            "id": "edaf9a8d-d67c-4e0e-8452-a37b111581d5",
            "url": "https://ll.thespacedevs.com/2.0.0/launch/edaf9a8d-d67c-4e0e-8452-a37b111581d5/",
            "launch_library_id": 1417,
            "slug": "falcon-9-block-5-sirius-sxm-8",
            "name": "Falcon 9 Block 5 | Sirius SXM-8",
            "status": {
                "id": 2,
                "name": "TBD"
            },
            "net": "2021-01-31T00:00:00Z",
            "window_end": "2021-01-31T00:00:00Z",
            "window_start": "2021-01-31T00:00:00Z",
            "lsp_name": "SpaceX",
            "mission": "SXM-8",
            "mission_type": "Communications",
            "pad": "Unknown Pad",
            "location": "Unknown Location",
            "landing": null,
            "landing_success": null,
            "launcher": null,
            "orbit": null,
            "image": "https://spacelaunchnow-prod-east.nyc3.digitaloceanspaces.com/media/launcher_images/falcon25209_image_20190224025007.jpeg",
            "infographic": null
        }
    ]
}
